["Barcelona", "Madrid", "Buenos Aires", "Barranquilla", "Los Angeles",
"Amsterdam", "Caracas", "Denver", "Estocolmo", "Frankfurt", "Galicia", "Indiana",
"Jerusalen", "Kioto", "New York", "Ontario", "Puerto Madrin", "Quito", "Rio de Janeiro",
"Santiago", "Tokio", "Uspallata", "Vienna", "Wellington", "Yorkshire", "Zaragoza"
]